What the Package Does (Title Case) • ggoxford
…
Create mockSummarisedResult

To use the function mockSummarisedResult, we employ the command

mockSummarisedResult(seed, startDate, endDate, populationSize)

where “seed” is the seed for the random mock data generated, “startDate”, “endDate” are the start and end dates for the data, and “populationSize” is the size of the population to use.

For example,

> mockSummarisedResult(1, as.Date(“2021-01-01”), as.Date(“2021-12-31”), 10)

# A tibble: 404 × 9

group_name group_level strata_name strata_level variable variable_level variable_type 

1 cohort_name Cohort 1 Overall Overall number subjec… NA NA

2 cohort_name Cohort 1 Overall Overall number records NA NA

3 cohort_name Cohort 1 Overall Overall cohort_start_… NA date

4 cohort_name Cohort 1 Overall Overall cohort_start_… NA date

5 cohort_name Cohort 1 Overall Overall cohort_start_… NA date

6 cohort_name Cohort 1 Overall Overall cohort_start_… NA date

7 cohort_name Cohort 1 Overall Overall cohort_start_… NA date

8 cohort_name Cohort 1 Overall Overall cohort_end_da… NA date

9 cohort_name Cohort 1 Overall Overall cohort_end_da… NA date

10 cohort_name Cohort 1 Overall Overall cohort_end_da… NA date

# ℹ 394 more rows # ℹ 2 more variables: estimate_type , estimate  # ℹ Use print(n = ...) to see more rows
…
